%YAML 1.1
%TAG !u! tag:unity3d.com,2011:
--- !u!1045 &1
EditorBuildSettings:
  m_ObjectHideFlags: 0
  serializedVersion: 2
  m_Scenes:
  - enabled: 0
    path: 
    guid: 00000000000000000000000000000000
  - enabled: 1
    path: Assets/Scenes/MainMenu.unity
    guid: 2bdc336ecee39f342af19e9aab97d9b8
  - enabled: 1
    path: Assets/Scenes/gameScene.unity
    guid: aa87d88abc067ed4a8e74b263bde0f4c
  m_configObjects: {}
